{"_id":{"$oid":"58e730a168c49217485a9027"},"name":"GTA V","platform":"ps3, ps4, xbox 360, xbox one, pc","gamepic":"http://gridom.com/sites/default/files/styles/game_logo_small/public/gta.jpg?itok=SF0r3YNc","shortDesc":"Build your crew in real-time!!","characters":"Hunter, Warlock, Titan","desc":"Grand Theft Auto V is an action-adventure video game developed by Rockstar North and published by Rockstar Games. It was released on 17 September 2013 for the PlayStation 3 and Xbox 360, on 18 November 2014 for the PlayStation 4 and Xbox One, and on 14 April 2015 for Microsoft Windows. It is the first main entry in the Grand Theft Auto series since 2008's Grand Theft Auto IV. Set within the fictional state of San Andreas, based on Southern California, the single-player story follows three criminals and their efforts to commit heists while under pressure from a government agency. The open world design lets players freely roam San Andreas' open countryside and the fictional city of Los Santos, based on Los Angeles.","__v":0}
{"_id":{"$oid":"58e732594f90681964de2422"},"name":"Destiny","platform":"ps3,ps4,xbox 360,xbox one","gamepic":"http://gridom.com/sites/default/files/styles/game_logo_small/public/destiny_0_0.jpg?itok=4FkE2zgp","shortDesc":"Anyone up for some Tower Soccer?","characters":"Hunter, Warlock, Titan","desc":"Destiny is an online-only multiplayer first-person shooter video game developed by Bungie and published by Activision. It was released worldwide on September 9, 2014, for the PlayStation 3, PlayStation 4, Xbox 360, and Xbox One consoles. Destiny marked Bungie's first new console franchise since the Halo series, and it is the first game in a ten-year agreement between Bungie and Activision. Set in a mythic science fiction world, the game features a multiplayer shared-world environment with elements of role-playing games. Activities in Destiny are divided among player versus environment (PvE) and player versus player (PvP) game types. In addition to normal story missions, PvE features three-player strikes and six-player raids. A free roam patrol mode is also available for each planet and features public events. PvP features objective-based modes, as well as traditional deathmatch game modes.","__v":0}
{"_id":{"$oid":"58e732d3323d9b0cf0b91afd"},"name":"Diablo III: Reaper of Souls","platform":"ps3,ps4,xbox 360,xbox one","gamepic":"http://gridom.com/sites/default/files/styles/game_logo_small/public/d3ros_0_0.jpg?itok=EKqL-cUs","shortDesc":"How can you make Horadric hamburgers if there is no cow level?","characters":"Barbarian, Crusader, Demon Hunter, Monk, WitchDoctor, Wizard.","desc":"Diablo III is a hack and slash action role-playing video game developed and published by Blizzard Entertainment. It is the third installment in the Diablo franchise and was released in the Americas, Europe, South Korea, and Taiwan on May 15, 2012, and Russia on June 7, 2012,[4] for Microsoft Windows and macOS. A console version was released for the PlayStation 3 and Xbox 360 on September 3, 2013.[3] Versions for PlayStation 4 and Xbox One were released on August 19, 2014.","__v":0}
{"_id":{"$oid":"58e73326f85bf411d0def9a3"},"name":"FIFA 15","platform":"ps3,ps4,WIIU,xbox 360,xbox one","gamepic":"http://gridom.com/sites/default/files/styles/game_logo_small/public/fifa_0.jpg?itok=GluF4aTU","shortDesc":"Find a Sparring partner here!!","characters":"Coach, Rochelle, Nick, Ellis.","desc":"FIFA 15 is an association football simulation video game developed by EA Canada and published by Electronic Arts. It was released on 23 September 2014 in North America, 25 September in Europe and 26 September in the United Kingdom and Ireland[1] for the PlayStation 3, PlayStation 4, PlayStation Vita, Nintendo 3DS, Wii, Xbox One, Xbox 360, Microsoft Windows, iOS, Android and Windows Phone.[2] On PC for the first time, FIFA 15 runs on EA’s Ignite engine with the same features as the PlayStation 4 and Xbox One editions.","__v":0}
{"_id":{"$oid":"58e73370b2c04512e46f962a"},"name":"CoD-Advanced Warfare","platform":"ps3,ps4,xbox 360,xbox one","gamepic":"http://gridom.com/sites/default/files/styles/game_logo_small/public/Call-of-Duty-Advanced-Warfare1_0.jpg?itok=fpzPW4m8","shortDesc":"Getting Teabagged by 14 year olds?","characters":"FIFA 15 is an association football simulation video game developed by EA Canada and published by Electronic Arts. It was released on 23 September 2014 in North America, 25 September in Europe and 26 September in the United Kingdom and Ireland[1] for the PlayStation 3, PlayStation 4, PlayStation Vita, Nintendo 3DS, Wii, Xbox One, Xbox 360, Microsoft Windows, iOS, Android and Windows Phone.[2] On PC for the first time, FIFA 15 runs on EA’s Ignite engine with the same features as the PlayStation 4 and Xbox One editions.","__v":0}
{"_id":{"$oid":"58e7441d122fff09a850cfdd"},"name":"Forza Horizon","platform":"xbox 360,xbox one","gamepic":"http://gridom.com/sites/default/files/styles/game_logo_small/public/fh_0.jpg?itok=lkyTHj2j","shortDesc":"Heading to nice? Need Comapany?","characters":"Coach, Rochelle","desc":"FIFA 15 is an association football simulation video game developed by EA Canada and published by Electronic Arts. It was released on 23 September 2014 in North America, 25 September in Europe and 26 September in the United Kingdom and Ireland[1] for the PlayStation 3, PlayStation 4, PlayStation Vita, Nintendo 3DS, Wii, Xbox One, Xbox 360, Microsoft Windows, iOS, Android and Windows Phone.[2] On PC for the first time, FIFA 15 runs on EA’s Ignite engine with the same features as the PlayStation 4 and Xbox One editions.","__v":0}
